 1024  2020-09-25 14:00:20 : git status
 1025  2020-09-25 14:00:20 : git ckeckout a1ba3918199bcace4ea13efe99efa978c72c124f
 1026  2020-09-25 14:00:20 : git checkout a1ba3918199bcace4ea13efe99efa978c72c124f
 1027  2020-09-25 14:00:20 : tree
 1028  2020-09-25 14:00:20 : cd ~
 1029  2020-09-25 14:00:20 : history|grep "bashrc"
 1030  2020-09-25 14:00:20 : nano -l ~/.bashrc
 1031  2020-09-25 14:00:20 : nano platuml_apoyo.txt
 1032  2020-09-25 14:00:20 : emacs guia_git.org 
 1033  2020-09-25 14:00:20 : rm -r ".git"
 1034  2020-09-25 14:00:20 : s
 1035  2020-09-25 14:00:20 : ls -la
 1036  2020-09-25 14:00:20 : git init
 1037  2020-09-25 14:00:20 : ls -la
 1038  2020-09-25 14:00:20 : git remote add origin git@gitlab.com:Raquelbracho77/guia_git.git
 1039  2020-09-25 14:00:20 : git add
 1040  2020-09-25 14:00:20 : git add .
 1041  2020-09-25 14:00:20 : git status
 1042  2020-09-25 14:00:20 : git commit -m "Se sube primera edicion"
 1043  2020-09-25 14:00:20 : git push -u origin master
 1044  2020-09-25 14:00:20 : nano subir_git.txt
 1045  2020-09-25 14:00:20 : git add .
 1046  2020-09-25 14:00:20 : git status
 1047  2020-09-25 14:00:20 : git push -u origin master
 1048  2020-09-25 14:00:20 : git commit -m "pasos para subir"
 1049  2020-09-25 14:00:20 : git push -u origin master
 1050  2020-09-25 14:00:20 : git status
 1051  2020-09-25 14:00:20 : ls -la
 1052  2020-09-25 14:00:20 : git push -u origin master
 1053  2020-09-25 14:00:20 : ls -la
 1054  2020-09-25 14:00:20 : git commit -m "pasos para subir"
 1055  2020-09-25 14:00:20 : git add .
 1056  2020-09-25 14:00:20 : git commit -m "pasos para subir"
 1057  2020-09-25 14:00:20 : git push -u origin master
 1058  2020-09-25 14:00:20 : git status
 1059  2020-09-25 14:00:20 : git add .
 1060  2020-09-25 14:00:20 : git status
 1061  2020-09-25 14:00:20 : git commit -m "ciclo de vida"
 1062  2020-09-25 14:00:20 : git push -u origin master
 1063  2020-09-25 14:00:20 : ls
 1064  2020-09-25 14:00:20 : temacs
 1065  2020-09-25 14:00:20 : systemctl restart --user emacs
 1066  2020-09-25 14:00:20 : temacs
 1067  2020-09-25 14:00:20 : .gitignore
 1068  2020-09-25 14:00:20 : nano .gitignore
 1069  2020-09-25 14:00:20 : cat .g
 1070  2020-09-25 14:00:20 : cat .gitignore 
 1071  2020-09-25 14:00:20 : cd ~/.bashrc
 1072  2020-09-25 14:00:20 : cd ~./bashrc
 1073  2020-09-25 14:00:20 : emacs -daemon
 1074  2020-09-25 14:00:20 : nemacs guia_git.org 
 1075  2020-09-25 14:00:20 : temacs guia_git.org 
 1076  2020-09-25 14:00:20 : systemctl start --user emacs
 1077  2020-09-25 14:00:20 : temacs guia_git.org 
 1078  2020-09-25 14:00:20 : systemctl start --user emacs
 1079  2020-09-25 14:00:20 : systemctl restart --user emacs
 1080  2020-09-25 14:00:20 : echo espera
 1081  2020-09-25 14:00:20 : temacs guia_git.org 
 1082  2020-09-25 14:00:20 : temacs
 1083  2020-09-25 14:00:20 : systemctl restart --user emacs
 1084  2020-09-25 14:00:20 : nemacs
 1085  2020-09-25 14:00:20 : git init ejemplo
 1086  2020-09-25 14:00:20 : touch README.md
 1087  2020-09-25 14:00:20 : touch archivo.txt
 1088  2020-09-25 14:00:20 : touch a.txt b.txt c.txt
 1089  2020-09-25 14:00:20 : git add .
 1090  2020-09-25 14:00:20 : git status
 1091  2020-09-25 14:00:20 : git commit -m "Subiendo ejemplos para guía"
 1092  2020-09-25 14:00:20 : git push -u origin master
 1093  2020-09-25 14:00:20 : git remote add origin git@gitlab.com:Raquelbracho77/ejemplo.git
 1094  2020-09-25 14:00:20 : git add .
 1095  2020-09-25 14:00:20 : git commit -m "Subiendo ejemplos para guía"
 1096  2020-09-25 14:00:20 : git push -u origin master
 1097  2020-09-25 14:00:20 : history|grep "bashrc"
 1098  2020-09-25 14:00:20 : cd ~
 1099  2020-09-25 14:00:20 : nano -l ~/.bashrc
 1100  2020-09-25 14:00:20 : cd Documentos/guia_git/
 1101  2020-09-25 14:00:20 : ls
 1102  2020-09-25 14:00:20 : git status 
 1103  2020-09-25 14:00:20 : nano .gitignore 
 1104  2020-09-25 14:00:20 : git add .
 1105  2020-09-25 14:00:20 : git status
 1106  2020-09-25 14:00:20 : git commit -m "Instalación y confguración de git"
 1107  2020-09-25 14:00:20 : git push -u origin master
 1108  2020-09-25 14:00:20 : git help config
 1109  2020-09-25 14:00:20 : temacs 
 1110  2020-09-25 14:00:20 : cd Documentos/
 1111  2020-09-25 14:00:20 : ls
 1112  2020-09-25 14:00:20 : cd guia_git/
 1113  2020-09-25 14:00:20 : ls
 1114  2020-09-25 14:00:20 : temacs guia_git.org 
 1115  2020-09-25 14:00:20 : cd ..
 1116  2020-09-25 14:00:20 : git clone https://gitlab.com/Raquelbracho77/consultas_sql consultas
 1117  2020-09-25 14:00:20 : git clone https://gitlab.com/Raquelbracho77/geometria geo_git
 1118  2020-09-25 14:00:20 : git clone https://gitlab.com/Raquelbracho77/ejemplo mi_ejemplo
 1119  2020-09-25 14:00:20 : git status
 1120  2020-09-25 14:00:20 : clear
 1121  2020-09-25 14:00:20 : cd mi_ejemplo/
 1122  2020-09-25 14:00:20 : ls
 1123  2020-09-25 14:00:20 : status
 1124  2020-09-25 14:00:20 : git status
 1125  2020-09-25 14:00:20 : git status -s
 1126  2020-09-25 14:00:20 : ls
 1127  2020-09-25 14:00:20 : nano b.txt 
 1128  2020-09-25 14:00:20 : echo "Hola mundo, estoy aprendiendo a usar git!" b.txt 
 1129  2020-09-25 14:00:20 : cat b.txt 
 1130  2020-09-25 14:00:20 : echo "Hola mundo, estoy aprendiendo a usar git!" > b.txt 
 1131  2020-09-25 14:00:20 : cat b.txt 
 1132  2020-09-25 14:00:20 : git status
 1133  2020-09-25 14:00:20 : touch d.txt e.txt f.txt LEEME
 1134  2020-09-25 14:00:20 : ls
 1135  2020-09-25 14:00:20 : git status
 1136  2020-09-25 14:00:20 : git status -s
 1137  2020-09-25 14:00:20 : git status
 1138  2020-09-25 14:00:20 : git add *.txt
 1139  2020-09-25 14:00:20 : git status
 1140  2020-09-25 14:00:20 : git LEEME
 1141  2020-09-25 14:00:20 : git add LEEME
 1142  2020-09-25 14:00:20 : git status -s
 1143  2020-09-25 14:00:20 : git status
 1144  2020-09-25 14:00:20 : git add .
 1145  2020-09-25 14:00:20 : git status
 1146  2020-09-25 14:00:20 : git log
 1147  2020-09-25 14:00:20 : history|grep "upgrade"
 1148  2020-09-25 14:00:20 : sudo apt upgrade
 1149  2020-09-25 14:00:20 : nemacs
 1150  2020-09-25 14:00:20 : nano leer_emacs.txt
 1151  2020-09-25 14:00:20 : temacs guia_git.org 
 1152  2020-09-25 14:00:20 : nano ~/.bashrc
 1153  2020-09-25 14:00:20 : temacs
 1154  2020-09-25 14:00:20 : systemctl restart --user emacs
 1155  2020-09-25 14:00:20 : temacs
 1156  2020-09-25 14:00:20 : systemctl start --user emacs
 1157  2020-09-25 14:00:20 : temacs
 1158  2020-09-25 14:00:20 : emacs --daemon
 1159  2020-09-25 14:00:20 : emacs
 1160  2020-09-25 14:00:20 : temacs
 1161  2020-09-25 14:00:20 : system restart --user emacs
 1162  2020-09-25 14:00:20 : systemctl restart --user emacs
 1163  2020-09-25 14:00:20 : temacs
 1164  2020-09-25 14:00:20 : emacs
 1165  2020-09-25 14:00:20 : systemctl restart --user emacs
 1166  2020-09-25 14:00:20 : emacs
 1167  2020-09-25 14:00:20 : systemctl restart --user emacs
 1168  2020-09-25 14:00:20 : emacs
 1169  2020-09-25 14:00:20 : cd ~
 1170  2020-09-25 14:00:20 : package install virtualenvwrapper
 1171  2020-09-25 14:00:20 : grep virtualenv spacemacs
 1172  2020-09-25 14:00:20 : grep "virtualenv" spacemacs
 1173  2020-09-25 14:00:20 : grep "virtualenv" .spacemacs
 1174  2020-09-25 14:00:20 : grep -l "virtualenv" .spacemacs
 1175  2020-09-25 14:00:20 : grep "virtualenv" .spacemacs
 1176  2020-09-25 14:00:20 : grep -n "virtualenv" .spacemacs
 1177  2020-09-25 14:00:20 : grep -n "(venv-initialize-interactive-shells)" .spacemacs
 1178  2020-09-25 14:00:20 : grep -n "(venv-initialize-eshell)" .spacemacs
 1179  2020-09-25 14:00:20 : nano -l .spacemacs 
 1180  2020-09-25 14:00:20 : pwd
 1181  2020-09-25 14:00:20 : nano -l .spacemacs 
 1182  2020-09-25 14:00:20 : grep -n "(void-function recentf-save-list)" .spacemacs
 1183  2020-09-25 14:00:20 : git status
 1184  2020-09-25 14:00:20 : emacs
 1185  2020-09-25 14:00:20 : nano platuml_apoyo+git.txt 
 1186  2020-09-25 14:00:20 : git status
 1187  2020-09-25 14:00:20 : nano .gitignore
 1188  2020-09-25 14:00:20 : git status
 1189  2020-09-25 14:00:20 : git add .
 1190  2020-09-25 14:00:20 : git status
 1191  2020-09-25 14:00:20 : git commit -m "Ajustar source code para pdf"
 1192  2020-09-25 14:00:20 : git push -u origin master
 1193  2020-09-25 14:00:20 : mkdir modificando
 1194  2020-09-25 14:00:20 : cp -r img/
 1195  2020-09-25 14:00:20 : cp -r img/ modificando/
 1196  2020-09-25 14:00:20 : cp guia_git.org 
 1197  2020-09-25 14:00:20 : cp guia_git.org modificando/
 1198  2020-09-25 14:00:20 : git status
 1199  2020-09-25 14:00:20 : emacs
 1200  2020-09-25 14:00:20 : git add .
 1201  2020-09-25 14:00:20 : git status
 1202  2020-09-25 14:00:20 : git commit -m "Cambios en la guia por historia hasta primer commit"
 1203  2020-09-25 14:00:20 : git push -u origin master 
 1204  2020-09-25 14:00:20 : git status
 1205  2020-09-25 14:00:20 : git status
 1206  2020-09-25 14:00:20 : git add .
 1207  2020-09-25 14:00:20 : git status
 1208  2020-09-25 14:00:20 : git push -u origin master
 1209  2020-09-25 14:00:20 : git add -v
 1210  2020-09-25 14:00:20 : cd ..
 1211  2020-09-25 14:00:20 : cd mi_ejemplo/
 1212  2020-09-25 14:00:20 : git status
 1213  2020-09-25 14:00:20 : git status -s
 1214  2020-09-25 14:00:20 : git commit -m "Primer commit en el proyecto"
 1215  2020-09-25 14:00:20 : touch postre.txt
 1216  2020-09-25 14:00:20 : echo "Brownie con helado" > postre.txt 
 1217  2020-09-25 14:00:20 : cat postre.txt 
 1218  2020-09-25 14:00:20 : git status
 1219  2020-09-25 14:00:20 : git commit -a -m "subiendo postre"
 1220  2020-09-25 14:00:20 : git status
 1221  2020-09-25 14:00:20 : git push help
 1222  2020-09-25 14:00:20 : git help push
 1223  2020-09-25 14:00:20 : git push -u origin master
 1224  2020-09-25 14:00:20 : ls
 1225  2020-09-25 14:00:20 : touch README.md
 1226  2020-09-25 14:00:20 : git status
 1227  2020-09-25 14:00:20 : git push -u origin master
 1228  2020-09-25 14:00:20 : git status
 1229  2020-09-25 14:00:20 : git push -u origin master
 1230  2020-09-25 14:00:20 : git status
 1231  2020-09-25 14:00:20 : nano LEEME.md
 1232  2020-09-25 14:00:20 : touch LEEME.md
 1233  2020-09-25 14:00:20 : ls
 1234  2020-09-25 14:00:20 : touch .gitignore
 1235  2020-09-25 14:00:20 : git status
 1236  2020-09-25 14:00:20 : echo 'LEEME.md' > .gitignore 
 1237  2020-09-25 14:00:20 : cat .giti
 1238  2020-09-25 14:00:20 : cat .gitignore 
 1239  2020-09-25 14:00:20 : git status
 1240  2020-09-25 14:00:20 : git add .
 1241  2020-09-25 14:00:20 : git status
 1242  2020-09-25 14:00:20 : git push -u origin master
 1243  2020-09-25 14:00:20 : git status
 1244  2020-09-25 14:00:20 : git commit 'nuevos cambios'
 1245  2020-09-25 14:00:20 : git commit -m 'nuevos cambios'
 1246  2020-09-25 14:00:20 : git push -u origin master
 1247  2020-09-25 14:00:20 : git status
 1248  2020-09-25 14:00:20 : nano .gitignore 
 1249  2020-09-25 14:00:20 : git add .
 1250  2020-09-25 14:00:20 : git commit -m 'nuevos cambios 2'
 1251  2020-09-25 14:00:20 : git push -u origin master
 1252  2020-09-25 14:00:20 : git status
 1253  2020-09-25 14:00:20 : git log --pretty=oneline
 1254  2020-09-25 14:00:20 : git log --pretty=oneline *
 1255  2020-09-25 14:00:20 : git log --pretty=format "%h - %an, %ar : %s"
 1256  2020-09-25 14:00:20 : git log
 1257  2020-09-25 14:00:20 : ca82a6d -
 1258  2020-09-25 14:00:20 : 085bb3b -
 1259  2020-09-25 14:00:20 : a11bef0 -
 1260  2020-09-25 14:00:20 : --pretty=format:"%h -
 1261  2020-09-25 14:00:20 : Scott Chacon, 6 years
 1262  2020-09-25 14:00:20 : Scott Chacon, 6 years
 1263  2020-09-25 14:00:20 : Scott Chacon, 6 years
 1264  2020-09-25 14:00:20 : git log --pretty=format:"%h - %an, %ar : %s"
 1265  2020-09-25 14:00:20 : git diff
 1266  2020-09-25 14:00:20 : git branch
 1267  2020-09-25 14:00:20 : git branch example
 1268  2020-09-25 14:00:20 : git branch
 1269  2020-09-25 14:00:20 : git checkout example 
 1270  2020-09-25 14:00:20 : git status
 1271  2020-09-25 14:00:20 : git checkout -b ramita
 1272  2020-09-25 14:00:20 : git status
 1273  2020-09-25 14:00:20 : git merge ramita
 1274  2020-09-25 14:00:20 : git status
 1275  2020-09-25 14:00:20 : git branch
 1276  2020-09-25 14:00:20 : cd ..
 1277  2020-09-25 14:00:20 : cd viaje/
 1278  2020-09-25 14:00:20 : git init
 1279  2020-09-25 14:00:20 : ls .la
 1280  2020-09-25 14:00:20 : ls -la
 1281  2020-09-25 14:00:20 : tree
 1282  2020-09-25 14:00:20 : tree -a
 1283  2020-09-25 14:00:20 : touch dinero.txt maleta.txt ropa.txt
 1284  2020-09-25 14:00:20 : tree
 1285  2020-09-25 14:00:20 : git status
 1286  2020-09-25 14:00:20 : git status -s
 1287  2020-09-25 14:00:20 : touch celular.txt
 1288  2020-09-25 14:00:20 : echo "abrigo, traje de baño, chanclas" > ropa.txt 
 1289  2020-09-25 14:00:20 : git status -s
 1290  2020-09-25 14:00:20 : git add .
 1291  2020-09-25 14:00:20 : git status
 1292  2020-09-25 14:00:20 : git status -s
 1293  2020-09-25 14:00:20 : echo "chanclas" > maleta.txt 
 1294  2020-09-25 14:00:20 : cat maleta.txt 
 1295  2020-09-25 14:00:20 : git status
 1296  2020-09-25 14:00:20 : git status -s
 1297  2020-09-25 14:00:20 : git help add
 1298  2020-09-25 14:00:20 : git add -v
 1299  2020-09-25 14:00:20 : git add maleta.txt 
 1300  2020-09-25 14:00:20 : git status
 1301  2020-09-25 14:00:20 : git status -s
 1302  2020-09-25 14:00:20 : git commit "Organizando mi viaje"
 1303  2020-09-25 14:00:20 : git add .
 1304  2020-09-25 14:00:20 : git commit -m "Organizando mi viaje"
 1305  2020-09-25 14:00:20 : emacs
 1306  2020-09-25 14:00:20 : git init 
 1307  2020-09-25 14:00:20 : git status
 1308  2020-09-25 14:00:20 : git add .
 1309  2020-09-25 14:00:20 : git status
 1310  2020-09-25 14:00:20 : git commit -m "Finalizada parte de las ramas"
 1311  2020-09-25 14:00:20 : git push -u origin master
 1312  2020-09-25 14:00:20 : git branch 
 1313  2020-09-25 14:00:20 : git add .
 1314  2020-09-25 14:00:20 : git status
 1315  2020-09-25 14:00:20 : git add .
 1316  2020-09-25 14:00:20 : git status -s
 1317  2020-09-25 14:00:20 : git commit -m "modificado el contenido 'ramas'"
 1318  2020-09-25 14:00:20 : git push -u origin master
 1319  2020-09-25 14:00:20 : git add .
 1320  2020-09-25 14:00:20 : git status 
 1321  2020-09-25 14:00:20 : git commit -m "cambios a ramas"
 1322  2020-09-25 14:00:20 : git push -u origin master
 1323  2020-09-25 14:00:20 : cd ..
 1324  2020-09-25 14:00:20 : cd viaje/
 1325  2020-09-25 14:00:20 : ls 
 1326  2020-09-25 14:00:20 : git push -u origin master
 1327  2020-09-25 14:00:20 : git status
 1328  2020-09-25 14:00:20 : git remote add origin git@gitlab.com:Raquelbracho77/viajes.git
 1329  2020-09-25 14:00:20 : git push -u origin master
 1330  2020-09-25 14:00:20 : git status -s
 1331  2020-09-25 14:00:20 : git status 
 1332  2020-09-25 14:00:20 : neceser.md
 1333  2020-09-25 14:00:20 : touch neceser.md
 1334  2020-09-25 14:00:20 : nano neceser.md 
 1335  2020-09-25 14:00:20 : git status
 1336  2020-09-25 14:00:20 : touch paraguas
 1337  2020-09-25 14:00:20 : git status
 1338  2020-09-25 14:00:20 : git status -s
 1339  2020-09-25 14:00:20 : git commit -a -m "empacando neceser"
 1340  2020-09-25 14:00:20 : git push -u origin master
 1341  2020-09-25 14:00:20 : git status
 1342  2020-09-25 14:00:20 : nano .gitignore
 1343  2020-09-25 14:00:20 : tree .gitignore 
 1344  2020-09-25 14:00:20 : tree 
 1345  2020-09-25 14:00:20 : git branch
 1346  2020-09-25 14:00:20 : git branch -b agumbe
 1347  2020-09-25 14:00:20 : git branch -b "agumbe"
 1348  2020-09-25 14:00:20 : git checkout -b agumbe
 1349  2020-09-25 14:00:20 : git branch
 1350  2020-09-25 14:00:20 : touch formulario_ivisa 
 1351  2020-09-25 14:00:20 : ls
 1352  2020-09-25 14:00:20 : boleto.agumbe.txt
 1353  2020-09-25 14:00:20 : touch boleto.agumbe.txt
 1354  2020-09-25 14:00:20 : rm boleto.agumbe.txt 
 1355  2020-09-25 14:00:20 : rm formulario_ivisa 
 1356  2020-09-25 14:00:20 : touch boleto_agumbe ivisa_agumbe.txt
 1357  2020-09-25 14:00:20 : ls
 1358  2020-09-25 14:00:20 : touch formulario_agumbe.txt
 1359  2020-09-25 14:00:20 : ll
 1360  2020-09-25 14:00:20 : touch pasaporte.txt
 1361  2020-09-25 14:00:20 : echo 'Turista por 30 días' >pasaporte.txt 
 1362  2020-09-25 14:00:20 : git diff
 1363  2020-09-25 14:00:20 : git difftool
 1364  2020-09-25 14:00:20 : git commit
 1365  2020-09-25 14:00:20 : nano .gitignore 
 1366  2020-09-25 14:00:20 : git add .
 1367  2020-09-25 14:00:20 : git status
 1368  2020-09-25 14:00:20 : nano .gitignore 
 1369  2020-09-25 14:00:20 : git add .
 1370  2020-09-25 14:00:20 : git status
 1371  2020-09-25 14:00:20 : git commit
 1372  2020-09-25 14:00:20 : git diff
 1373  2020-09-25 14:00:20 : git commit -m "Preparando documentos a Agumbe"
 1374  2020-09-25 14:00:20 : git diff
 1375  2020-09-25 14:00:20 : git push -u origin master
 1376  2020-09-25 14:00:20 : git status
 1377  2020-09-25 14:00:20 : git branch
 1378  2020-09-25 14:00:20 : git push -u origin agumbe
 1379  2020-09-25 14:00:20 : git status
 1380  2020-09-25 14:00:20 : git diff
 1381  2020-09-25 14:00:20 : git diff --staged
 1382  2020-09-25 14:00:20 : nano .gitignore 
 1383  2020-09-25 14:00:20 : git -ls -tree
 1384  2020-09-25 14:00:20 : git -tree
 1385  2020-09-25 14:00:20 : git help tree
 1386  2020-09-25 14:00:20 : tree
 1387  2020-09-25 14:00:20 : man tree
 1388  2020-09-25 14:00:20 : emacs
 1389  2020-09-25 14:00:20 : cd ..
 1390  2020-09-25 14:00:20 : cd viaje/
 1391  2020-09-25 14:00:20 : mkdir recetas
 1392  2020-09-25 14:00:20 : cd recetas/
 1393  2020-09-25 14:00:20 : touch Samosa.
 1394  2020-09-25 14:00:20 : Masala Dosa.
 1395  2020-09-25 14:00:20 : ls
 1396  2020-09-25 14:00:20 : rm Samosa. 
 1397  2020-09-25 14:00:20 : touch Samosa Masala_Dosa kati_roll
 1398  2020-09-25 14:00:20 : ls
 1399  2020-09-25 14:00:20 : cd ..
 1400  2020-09-25 14:00:20 : rm recetas/
 1401  2020-09-25 14:00:20 : rm -r recetas/
 1402  2020-09-25 14:00:20 : clear 
 1403  2020-09-25 14:00:20 : git branch
 1404  2020-09-25 14:00:20 : git checkout -b recetas_agumbe
 1405  2020-09-25 14:00:20 : git checkout
 1406  2020-09-25 14:00:20 : git branch
 1407  2020-09-25 14:00:20 : git branch -D recetas_agumbe 
 1408  2020-09-25 14:00:20 : git branch -m recetas
 1409  2020-09-25 14:00:20 : git branch
 1410  2020-09-25 14:00:20 : mkdir recetas
 1411  2020-09-25 14:00:20 : rm -r recetas/
 1412  2020-09-25 14:00:20 : mkdir recetas_agumbe
 1413  2020-09-25 14:00:20 : cd recetas_agumbe/
 1414  2020-09-25 14:00:20 : touch Samosa Masala_Dosa kati_roll
 1415  2020-09-25 14:00:20 : ls
 1416  2020-09-25 14:00:20 : tree
 1417  2020-09-25 14:00:20 : git status
 1418  2020-09-25 14:00:20 : git add .
 1419  2020-09-25 14:00:20 : git status
 1420  2020-09-25 14:00:20 : cd ..
 1421  2020-09-25 14:00:20 : git status
 1422  2020-09-25 14:00:20 : git commit -m "Subiendo recetas en agumbe"
 1423  2020-09-25 14:00:20 : git push -u origin recetas 
 1424  2020-09-25 14:00:20 : git status -s
 1425  2020-09-25 14:00:20 : git status 
 1426  2020-09-25 14:00:20 : ls
 1427  2020-09-25 14:00:20 : git checkout -b lugares
 1428  2020-09-25 14:00:20 : mkdir lugares_agumbe
 1429  2020-09-25 14:00:20 : cd lugares_agumbe/
 1430  2020-09-25 14:00:20 : git status
 1431  2020-09-25 14:00:20 : ls 
 1432  2020-09-25 14:00:20 : tree
 1433  2020-09-25 14:00:20 : cd ..
 1434  2020-09-25 14:00:20 : git status
 1435  2020-09-25 14:00:20 : git status -s
 1436  2020-09-25 14:00:20 : git add .
 1437  2020-09-25 14:00:20 : git status -s 
 1438  2020-09-25 14:00:20 : git commit -m "subiendo fotos de lugares, agumbae"
 1439  2020-09-25 14:00:20 : git push -u origin lugares 
 1440  2020-09-25 14:00:20 : git log 
 1441  2020-09-25 14:00:20 : git log lugares 
 1442  2020-09-25 14:00:20 : git branch
 1443  2020-09-25 14:00:20 : git merge recetas 
 1444  2020-09-25 14:00:20 : git branch
 1445  2020-09-25 14:00:20 : git branch --merged
 1446  2020-09-25 14:00:20 : git status
 1447  2020-09-25 14:00:20 : git add .
 1448  2020-09-25 14:00:20 : git commit "Fusión de rama lugares con recetas"
 1449  2020-09-25 14:00:20 : git commit - m"Fusión de rama lugares con recetas"
 1450  2020-09-25 14:00:20 : git commit - m "Fusión de rama lugares con recetas"
 1451  2020-09-25 14:00:20 : git commit -m "Fusión de rama lugares con recetas"
 1452  2020-09-25 14:00:20 : git push -u origin lugares
 1453  2020-09-25 14:00:20 : git checkout agumbe 
 1454  2020-09-25 14:00:20 : git branch
 1455  2020-09-25 14:00:20 : git merge lugares 
 1456  2020-09-25 14:00:20 : git status
 1457  2020-09-25 14:00:20 : git commit -m "Fusión de rama lugares con agumbe"
 1458  2020-09-25 14:00:20 : git push -u origin agumbe
 1459  2020-09-25 14:00:20 : tree
 1460  2020-09-25 14:00:20 : git status -s
 1461  2020-09-25 14:00:20 : git add .
 1462  2020-09-25 14:00:20 : git commit -m "Terminada parte 4, falta pull request"
 1463  2020-09-25 14:00:20 : git push -u origin master
 1464  2020-09-25 14:00:20 : git add .
 1465  2020-09-25 14:00:20 : git status
 1466  2020-09-25 14:00:20 : git commit -m "cambios en el pdf"
 1467  2020-09-25 14:00:20 : git push -u origin master
 1468  2020-09-25 14:00:20 : la -la
 1469  2020-09-25 14:00:20 : git init 
 1470  2020-09-25 14:00:20 : sudo apt steam
 1471  2020-09-25 14:00:20 : sudo apt install steam
 1472  2020-09-25 14:00:20 : git add .
 1473  2020-09-25 14:00:20 : git status
 1474  2020-09-25 14:00:20 : git status -s
 1475  2020-09-25 14:00:20 : git commit "Primera versión del logo"
 1476  2020-09-25 14:00:20 : git commit -m "Primera versión del logo"
 1477  2020-09-25 14:00:20 : git push -u origin master
 1478  2020-09-25 14:00:20 : git remote add origin git@gitlab.com:Raquelbracho77/icodes.git
 1479  2020-09-25 14:00:20 : git commit -m "Primera versión del logo"
 1480  2020-09-25 14:00:20 : git push -u origin master
 1481  2020-09-25 14:00:20 : sudo apt upgrade
 1482  2020-09-25 14:00:20 : status
 1483  2020-09-25 14:00:20 : --buntu
 1484  2020-09-25 14:00:20 : ubuntu
 1485  2020-09-25 14:00:20 : linux
 1486  2020-09-25 14:00:20 : git status
 1487  2020-09-25 14:00:20 : git brabch
 1488  2020-09-25 14:00:20 : git branch
 1489  2020-09-25 14:00:20 : sudo apt upgrade
 1490  2020-09-25 14:00:20 : git branch
 1491  2020-09-25 14:00:20 : git slow-branch
 1492  2020-09-25 14:00:20 : git show-branch
 1493  2020-09-25 14:00:20 : git status
 1494  2020-09-25 14:00:20 : git add .
 1495  2020-09-25 14:00:20 : git commit -m "ajuste"
 1496  2020-09-25 14:00:20 : git branch
 1497  2020-09-25 14:00:20 : tree
 1498  2020-09-25 14:00:20 : ls -la
 1499  2020-09-25 14:00:20 : git pull
 1500  2020-09-25 14:00:20 : git branch agumbe 
 1501  2020-09-25 14:00:20 : git checkout agumbe
 1502  2020-09-25 14:00:20 : git pull 
 1503  2020-09-25 14:00:20 : git log --all --graph --decorate --oneline
 1504  2020-09-25 14:00:20 : git log --all --graph --decorate 
 1505  2020-09-25 14:00:20 : git branch -v
 1506  2020-09-25 14:00:20 : gt branch --merged
 1507  2020-09-25 14:00:20 : git branch --merged
 1508  2020-09-25 14:00:20 : git branch
 1509  2020-09-25 14:00:20 : git chechout maleta.txt
 1510  2020-09-25 14:00:20 : git chechout master
 1511  2020-09-25 14:00:20 : git checkout master
 1512  2020-09-25 14:00:20 : git --merged
 1513  2020-09-25 14:00:20 : git branch --merged
 1514  2020-09-25 14:00:20 : git branch --no-merged
 1515  2020-09-25 14:00:20 : sudo apt upgrade
 1516  2020-09-25 14:00:20 : ls
 1517  2020-09-25 14:00:20 : git status 
 1518  2020-09-25 14:00:20 : git add .
 1519  2020-09-25 14:00:20 : git commit -m "ilustración de ramas"
 1520  2020-09-25 14:00:20 : git push - origin master
 1521  2020-09-25 14:00:20 : git push -u origin master
 1522  2020-09-25 14:00:20 : git status
 1523  2020-09-25 14:00:20 : git add .
 1524  2020-09-25 14:00:20 : git commit -m "correccion de ramas"
 1525  2020-09-25 14:00:20 : git push -u origin master
 1526  2020-09-25 14:00:20 : cd ..
 1527  2020-09-25 14:00:20 : cd viaje/
 1528  2020-09-25 14:00:20 : ls
 1529  2020-09-25 14:00:20 : touch __init__.py
 1530  2020-09-25 14:00:20 : pwd
 1531  2020-09-25 14:00:20 : touch pymacros_practicas.py
 1532  2020-09-25 14:00:20 : git init 
 1533  2020-09-25 14:00:20 : git remote add origin git@gitlab.com:Raquelbracho77/macros_python.git
 1534  2020-09-25 14:00:20 : git add .
 1535  2020-09-25 14:00:20 : git commit -m "estilo para celda 2x2"
 1536  2020-09-25 14:00:20 : git push -u origin master
 1537  2020-09-25 14:00:20 : emacs guia_git.org 
 1538  2020-09-25 14:00:20 : soffice --calc
 1539  2020-09-25 14:00:20 : soffice --writer
 1540  2020-09-25 14:00:20 : libreoffice --writer
 1541  2020-09-25 14:00:20 : soffice --calc
 1542  2020-09-25 14:00:20 : libreoffice --writer
 1543  2020-09-25 14:00:20 : soffice --calc
 1544  2020-09-25 14:00:20 : libreoffice --writer
 1545  2020-09-25 14:00:20 : soffice --calc
 1546  2020-09-25 14:00:20 : cd ..
 1547  2020-09-25 14:00:20 : ls
 1548  2020-09-25 14:00:20 : soffice --calc estilo_ejemplo.ods 
 1549  2020-09-25 14:00:20 : soffice --calc 
 1550  2020-09-25 14:00:20 : touch dospordos.py
 1551  2020-09-25 14:00:20 : nano seleccion_plantillas.txt
 1552  2020-09-25 14:00:20 : git add .
 1553  2020-09-25 14:00:20 : git commit "más cerca de logo y paleta de colores"
 1554  2020-09-25 14:00:20 : git commit -m "más cerca de logo y paleta de colores"
 1555  2020-09-25 14:00:20 : git push -u origin master
 1556  2020-09-25 14:00:20 : git add .
 1557  2020-09-25 14:00:20 : git commit -m "3 propuestas"
 1558  2020-09-25 14:00:20 : git push -u origin master
 1559  2020-09-25 14:00:20 : touch formatos_macro.py
 1560  2020-09-25 14:00:20 : git add .
 1561  2020-09-25 14:00:20 : git status 
 1562  2020-09-25 14:00:20 : git commit -m "Corrección del script"
 1563  2020-09-25 14:00:20 : git push -u origin master
 1564  2020-09-25 14:00:20 : git commit -m "Formato mejorado"
 1565  2020-09-25 14:00:20 : git add .
 1566  2020-09-25 14:00:20 : git commit -m "Formato mejorado"
 1567  2020-09-25 14:00:20 : git push -u origin master
 1568  2020-09-25 14:00:20 : soffice --calc
 1569  2020-09-25 14:00:20 : node 
 1570  2020-09-25 14:00:20 : node --version
 1571  2020-09-25 14:00:20 : npm
 1572  2020-09-25 14:00:20 : npm --version
 1573  2020-09-25 14:00:20 : node -v
 1574  2020-09-25 14:00:20 : pwd
 1575  2020-09-25 14:00:20 : tar -xvf node-v12.18.3-linux-x64.tar.xz 
 1576  2020-09-25 14:00:20 : sudo mv ./node-v12.18.3-linux-x64 /opt/node
 1577  2020-09-25 14:00:20 : export PATH=${PATH}:/opt/mpde/bin
 1578  2020-09-25 14:00:20 : tar -xvf pack_parcel_sass.tar.gz 
 1579  2020-09-25 14:00:20 : node -v
 1580  2020-09-25 14:00:20 : node --version
 1581  2020-09-25 14:00:20 : npm --version
 1582  2020-09-25 14:00:20 : export PATH=${PATH}:/opt/node/bin
 1583  2020-09-25 14:00:20 : node --version
 1584  2020-09-25 14:00:20 : npm --version
 1585  2020-09-25 14:00:20 : cd ..
 1586  2020-09-25 14:00:20 : cd Documentos/
 1587  2020-09-25 14:00:20 : mkdir desarrollo
 1588  2020-09-25 14:00:20 : mv ./pack_parcel_sass desarrollo/
 1589  2020-09-25 14:00:20 : cd desarrollo/
 1590  2020-09-25 14:00:20 : ll
 1591  2020-09-25 14:00:20 : l
 1592  2020-09-25 14:00:20 : npm install
 1593  2020-09-25 14:00:20 : npm run start
 1594  2020-09-25 14:00:20 : ls
 1595  2020-09-25 14:00:20 : cd pack_parcel_sass/
 1596  2020-09-25 14:00:20 : npm run start
 1597  2020-09-25 14:00:20 : npm install
 1598  2020-09-25 14:00:20 : cd ..
 1599  2020-09-25 14:00:20 : nano ./bashrc
 1600  2020-09-25 14:00:20 : source .bashrc
 1601  2020-09-25 14:00:20 : cd Documentos/
 1602  2020-09-25 14:00:20 : cd Programacion/
 1603  2020-09-25 14:00:20 : nano ruleta.sh
 1604  2020-09-25 14:00:20 : bash ruleta.sh 
 1605  2020-09-25 14:00:20 : nano ruleta.sh
 1606  2020-09-25 14:00:20 : bash ruleta.sh 
 1607  2020-09-25 14:00:20 : nano ruleta.sh
 1608  2020-09-25 14:00:20 : history|grep "upgrade"
 1609  2020-09-25 14:00:20 : sudo apt upgrade
 1610  2020-09-25 14:00:20 : npm install
 1611  2020-09-25 14:00:20 : node --version
 1612  2020-09-25 14:00:20 : npm --version
 1613  2020-09-25 14:00:20 : cd ~
 1614  2020-09-25 14:00:20 : sudo apt upgrade
 1615  2020-09-25 14:00:20 : nano .gitignore
 1616  2020-09-25 14:00:20 : nano ruleta.sh 
 1617  2020-09-25 14:00:20 : bash ruleta.sh 
 1618  2020-09-25 14:00:20 : nano ruleta.sh 
 1619  2020-09-25 14:00:20 : bash ruleta.sh 
 1620  2020-09-25 14:00:20 : nano mismacros.py
 1621  2020-09-25 14:00:20 : touch mismacros.py
 1622  2020-09-25 14:00:20 : soffice --calc
 1623  2020-09-25 14:00:20 : cd ^
 1624  2020-09-25 14:00:20 : clear
 1625  2020-09-25 14:00:20 : echo $PATH
 1626  2020-09-25 14:00:20 : cd ~
 1627  2020-09-25 14:00:20 : echo $PATH
 1628  2020-09-25 14:00:20 : export PATH=${PATH}:/opt/node/bin
 1629  2020-09-25 14:00:20 : source .bashrc
 1630  2020-09-25 14:00:20 : echo $PATH
 1631  2020-09-25 14:00:20 : cat ~/.bashrc
 1632  2020-09-25 14:00:20 : cat ~/.bashrc|grep "$PATH"
 1633  2020-09-25 14:00:20 : grep "$PATH" ~/.bashrc
 1634  2020-09-25 14:00:20 : nano ~/.bashrc
 1635  2020-09-25 14:00:20 : clear
 1636  2020-09-25 14:00:20 : export PATH=${PATH}:/opt/node/bin
 1637  2020-09-25 14:00:20 : source .bashrc
 1638  2020-09-25 14:00:20 : npm version
 1639  2020-09-25 14:00:20 : npm --version
 1640  2020-09-25 14:00:20 : node --version
 1641  2020-09-25 14:00:20 : npm install 
 1642  2020-09-25 14:00:20 : nano ~/.bashrc
 1643  2020-09-25 14:00:20 : cat ~/.bashrc
 1644  2020-09-25 14:00:20 : nano ~/.bashrc
 1645  2020-09-25 14:00:20 : echo -e ‘Así se escribe \e[1;34mG\e[0m\e[1;31mo\e[0m\e[1;33mo\e[0m\e[1;34mg\e[0m\e[1;32ml\e[0m\e[1;31me\e[0m
 1646  2020-09-25 14:00:20 : echo -e ‘Esto es \e[0;31mrojo\e[0m y esto es \e[1;34mazul resaltado\e[0m’
 1647  2020-09-25 14:00:20 : cd Documentos/
 1648  2020-09-25 14:00:20 : ej.sh
 1649  2020-09-25 14:00:20 : nano ej.sh
 1650  2020-09-25 14:00:20 : bash ej.sh 
 1651  2020-09-25 14:00:20 : nano ej.sh
 1652  2020-09-25 14:00:20 : bash ej.sh 
 1653  2020-09-25 14:00:20 : rm ej.sh 
 1654  2020-09-25 14:00:20 : nano hola.sh
 1655  2020-09-25 14:00:20 : bash hola.sh 
 1656  2020-09-25 14:00:20 : find pictures/ -type f -iname '*.jpg' | xargs -I '{}' convert '{}' -resize 150x150 -quality 100 '{}'.png 
 1657  2020-09-25 14:00:20 : f -iname '*.jpg' | xargs -I '{}' convert '{}' -resize 150x150 -quality 100 '{}'.png 
 1658  2020-09-25 14:00:20 : find -iname '*.jpg' | xargs -I '{}' convert '{}' -resize 150x150 -quality 100 '{}'.png 
 1659  2020-09-25 14:00:20 : dd
 1660  2020-09-25 14:00:20 : ll
 1661  2020-09-25 14:00:20 : cd ..
 1662  2020-09-25 14:00:20 : cd ~
 1663  2020-09-25 14:00:20 : cd ~/.config/geany/colorschemes/
 1664  2020-09-25 14:00:20 : wget https://raw.githubusercontent.com/geany/geany-themes/master/colorschemes/black.conf
 1665  2020-09-25 14:00:20 : wget https://raw.githubusercontent.com/geany/geany-themes/master/colorschemes/himbeere.conf
 1666  2020-09-25 14:00:20 : wget https://github.com/dracula/geany/blob/master/Dracula-Theme.conf
 1667  2020-09-25 14:00:20 : ls
 1668  2020-09-25 14:00:20 : rm Dracula-Theme.conf 
 1669  2020-09-25 14:00:20 : geany black.conf 
 1670  2020-09-25 14:00:20 : touch hola.py~
 1671  2020-09-25 14:00:20 : touch hola.py
 1672  2020-09-25 14:00:20 : soffice --calc
 1673  2020-09-25 14:00:20 : npm run start
 1674  2020-09-25 14:00:20 : touch index.html
 1675  2020-09-25 14:00:20 : touch index.css
 1676  2020-09-25 14:00:20 : touch navbar.css
 1677  2020-09-25 14:00:20 : npm run start
 1678  2020-09-25 14:00:20 : npm update
 1679  2020-09-25 14:00:20 : cd ..
 1680  2020-09-25 14:00:20 : cd pack_parcel_sass/
 1681  2020-09-25 14:00:20 : l
 1682  2020-09-25 14:00:20 : npm update
 1683  2020-09-25 14:00:20 : npm install 
 1684  2020-09-25 14:00:20 : npm install parcell-plugin-watch-reload -D
 1685  2020-09-25 14:00:20 : npm install parcel-plugin-watch-reload -D
 1686  2020-09-25 14:00:20 : npm run start
 1687  2020-09-25 14:00:20 : cd ..
 1688  2020-09-25 14:00:20 : cd Programacion/
 1689  2020-09-25 14:00:20 : nano ruleta.sh 
 1690  2020-09-25 14:00:20 : progress_bar.sh
 1691  2020-09-25 14:00:20 : nano progress_bar.sh
 1692  2020-09-25 14:00:20 : bash progress_bar.sh 
 1693  2020-09-25 14:00:20 : cd ..
 1694  2020-09-25 14:00:20 : cd Programacion/
 1695  2020-09-25 14:00:20 : cd cositas_bash/
 1696  2020-09-25 14:00:20 : nano hola.sh 
 1697  2020-09-25 14:00:20 : bash hola.sh 
 1698  2020-09-25 14:00:20 : nano hola.sh 
 1699  2020-09-25 14:00:20 : nano progress_bar.sh 
 1700  2020-09-25 14:00:20 : bash progress_bar.sh 
 1701  2020-09-25 14:00:20 : nano progress_bar.sh 
 1702  2020-09-25 14:00:20 : touch n.sh
 1703  2020-09-25 14:00:20 : nano n
 1704  2020-09-25 14:00:20 : nano n.sh 
 1705  2020-09-25 14:00:20 : bash n.sh 
 1706  2020-09-25 14:00:20 : nano n.sh 
 1707  2020-09-25 14:00:20 : sudo apt upgrade
 1708  2020-09-25 14:00:20 : cd ~
 1709  2020-09-25 14:00:20 : sudo apt upgrade
 1710  2020-09-25 14:00:20 : soffice --calc
 1711  2020-09-25 14:00:20 : touch copiar_en_hoja.py
 1712  2020-09-25 14:00:20 : soffice --calc
 1713  2020-09-25 14:00:20 : git status 
 1714  2020-09-25 14:00:20 : git status  -s
 1715  2020-09-25 14:00:20 : git add .
 1716  2020-09-25 14:00:20 : git status
 1717  2020-09-25 14:00:20 : git commit -m "practica 5"
 1718  2020-09-25 14:00:20 : git push -u origin master
 1719  2020-09-25 14:00:20 : sudo apt upgrade
 1720  2020-09-25 14:00:20 : publicar.txt
 1721  2020-09-25 14:00:20 : touch publicar.txt
 1722  2020-09-25 14:00:20 : nano publicar.txt 
 1723  2020-09-25 14:00:20 : nano publicar.txt
 1724  2020-09-25 14:00:20 : nano perfiles.txt
 1725  2020-09-25 14:00:20 : nano cambiar_size_img.txt
 1726  2020-09-25 14:00:20 : soffice --calc
 1727  2020-09-25 14:00:20 : cp ESTAFA.png /pub
 1728  2020-09-25 14:00:20 : cp ESTAFA.png pub
 1729  2020-09-25 14:00:20 : git add .
 1730  2020-09-25 14:00:20 : git commit -m "clase 6"
 1731  2020-09-25 14:00:20 : git push -u origin maste
 1732  2020-09-25 14:00:20 : git push -u origin master
 1733  2020-09-25 14:00:20 : cd ..
 1734  2020-09-25 14:00:20 : sudo apt upgrade
 1735  2020-09-25 14:00:20 : soffice --calc
 1736  2020-09-25 14:00:20 : sudo apt upgrade
 1737  2020-09-25 14:00:20 : soffice --calc
 1738  2020-09-25 14:00:20 : soffice --calc origen_destino.ods 
 1739  2020-09-25 14:00:20 : calc origen_destino.ods 
 1740  2020-09-25 14:00:20 : --calc origen_destino.ods 
 1741  2020-09-25 14:00:20 : soffice --calc origen_destino.ods 
 1742  2020-09-25 14:00:20 : soffice --calc
 1743  2020-09-25 14:00:20 : python .m pdb mismacros.py 
 1744  2020-09-25 14:00:20 : python -m pdb mismacros.py 
 1745  2020-09-25 14:00:20 : soffice --calc
 1746  2020-09-25 14:00:20 : pwd
 1747  2020-09-25 14:00:20 : sudo apt upgrade
 1748  2020-09-25 14:00:20 : cd Documentos/
 1749  2020-09-25 14:00:20 : /home/raquel/.config/libreoffice/4/user/Scripts/python
 1750  2020-09-25 14:00:20 : cd /home/raquel/.config/libreoffice/4/user/Scripts/python
 1751  2020-09-25 14:00:20 : sudo apt upgrade
 1752  2020-09-25 14:00:20 : git status -s
 1753  2020-09-25 14:00:20 : git add .
 1754  2020-09-25 14:00:20 : git status -s
 1755  2020-09-25 14:00:20 : git commit "taller 7, dividido en 2 modulos"
 1756  2020-09-25 14:00:20 : git commit -m "taller 7, dividido en 2 modulos"
 1757  2020-09-25 14:00:20 : git push -u origin master
 1758  2020-09-25 14:00:20 : git status 
 1759  2020-09-25 14:00:20 : python3
 1760  2020-09-25 14:00:20 : clear
 1761  2020-09-25 14:00:20 : soffice --calc
 1762  2020-09-25 14:00:20 : cd ~
 1763  2020-09-25 14:00:20 : cd Documentos/
 1764  2020-09-25 14:00:20 : mkdir zaz_mri
 1765  2020-09-25 14:00:20 : cd zaz_mri/
 1766  2020-09-25 14:00:20 : git pull https://gitlab.com/mauriciobaeza/zaz-inspect/-/tree/master/files
 1767  2020-09-25 14:00:20 : git clone https://gitlab.com/mauriciobaeza/zaz-inspect/-/tree/master/files
 1768  2020-09-25 14:00:20 : git clone https://github.com/hanya/MRI/releases
 1769  2020-09-25 14:00:20 : git status
 1770  2020-09-25 14:00:20 : ls -la
 1771  2020-09-25 14:00:20 : ll
 1772  2020-09-25 14:00:20 : ls -l
 1773  2020-09-25 14:00:20 : ls -la
 1774  2020-09-25 14:00:20 : clear
 1775  2020-09-25 14:00:20 : git clone https://github.com/hanya/MRI/releases
 1776  2020-09-25 14:00:20 : git clone https://gitlab.com/mauriciobaeza/zaz-inspect/-/tree/master/files
 1777  2020-09-25 14:00:20 : git clone https://gitlab.com/mauriciobaeza/zaz-inspect/-/blob/master/files/ZAZInspect_v0.3.0.oxt
 1778  2020-09-25 14:00:20 : git clone https://gitlab.com/mauriciobaeza/zaz-inspect/-/tree/master
 1779  2020-09-25 14:00:20 : git status 
 1780  2020-09-25 14:00:20 : clear 
 1781  2020-09-25 14:00:20 : git clone https://gitlab.com/mauriciobaeza/zaz-inspect.git
 1782  2020-09-25 14:00:20 : git clone https://github.com/hanya/MRI.git
 1783  2020-09-25 14:00:20 : nano descargar.txt
 1784  2020-09-25 14:00:20 : git clone https://github.com/hanya/MRI.git
 1785  2020-09-25 14:00:20 : sudo apt upgrade
 1786  2020-09-25 14:00:20 : pwd
 1787  2020-09-25 14:00:20 : hostname
 1788  2020-09-25 14:00:20 : find -iname "*.oxt"
 1789  2020-09-25 14:00:20 : ll
 1790  2020-09-25 14:00:20 : ls
 1791  2020-09-25 14:00:20 : find -iname ".oxt"
 1792  2020-09-25 14:00:20 : find -iname ".py"
 1793  2020-09-25 14:00:20 : find -iname ".oxt"|xargs grep "e"
 1794  2020-09-25 14:00:20 : find -iname ".py"|xargs grep "e"
 1795  2020-09-25 14:00:20 : ls -l *.py
 1796  2020-09-25 14:00:20 : ls -l *.oxt
 1797  2020-09-25 14:00:20 : ls
 1798  2020-09-25 14:00:20 : find -iname "*oxt"
 1799  2020-09-25 14:00:20 : apt update
 1800  2020-09-25 14:00:20 : apt upgrade
 1801  2020-09-25 14:00:20 : sudo apt update
 1802  2020-09-25 14:00:20 : sudo apt upgrade
 1803  2020-09-25 14:00:20 : soffice --calc
 1804  2020-09-25 14:00:20 : ip
 1805  2020-09-25 14:00:20 : ipconfig
 1806  2020-09-25 14:00:20 : ip a list
 1807  2020-09-25 14:00:20 : sudo apt upgrade
 1808  2020-09-25 14:00:20 : soffice --calc
 1809  2020-09-25 14:00:20 : cd ~
 1810  2020-09-25 14:00:20 : history|grep "bashrc"
 1811  2020-09-25 14:00:20 : source ~/.bashrc
 1812  2020-09-25 14:00:20 : nano ~/.bashrc
 1813  2020-09-25 14:00:20 : source ~/.bashrc
 1814  2020-09-25 14:00:20 : nano ~/.bashrc
 1815  2020-09-25 14:00:20 : export | grep SAL_USE_VCLPLUGIN
 1816  2020-09-25 14:00:20 : export | grep -n SAL_USE_VCLPLUGIN
 1817  2020-09-25 14:00:20 : nano ~/.bashrc
 1818  2020-09-25 14:00:20 : source ~/.bashrc
 1819  2020-09-25 14:00:20 : nano ~/.bashrc
 1820  2020-09-25 14:00:20 : ubuntu
 1821  2020-09-25 14:00:20 : soffice --calc
 1822  2020-09-25 14:00:20 : sudo apt upgrade
 1823  2020-09-25 14:00:20 : sudo apt update 
 1824  2020-09-25 14:00:20 : ll
 1825  2020-09-25 14:00:20 : ls
 1826  2020-09-25 14:00:20 : ls -la
 1827  2020-09-25 14:00:20 : sudo apt upgrade
 1828  2020-09-25 14:00:20 : nano ~/.bashrc
 1829  2020-09-25 14:00:20 : soffice --calc
 1830  2020-09-25 14:00:20 : pwd
 1831  2020-09-25 14:00:20 : grep oxt
 1832  2020-09-25 14:00:20 : ls
 1833  2020-09-25 14:00:20 : ll
 1834  2020-09-25 14:00:20 : tree
 1835  2020-09-25 14:00:20 : source calc
 1836  2020-09-25 14:00:20 : source --calc
 1837  2020-09-25 14:00:20 : soffice --calc
 1838  2020-09-25 14:00:20 : sudo apt update
 1839  2020-09-25 14:00:20 : sudo apt upgrade
 1840  2020-09-25 14:00:20 : soffice --calc
 1841  2020-09-25 14:00:20 : clear
 1842  2020-09-25 14:00:20 : sudo add-apt-repository ppa:libreoffice/libreoffice-7-0
 1843  2020-09-25 14:00:20 : sudo add-apt-repository ppa:libreoffice/ppa
 1844  2020-09-25 14:00:20 : sudo apt full-upgrade
 1845  2020-09-25 14:00:20 : soffice --calc
 1846  2020-09-25 14:00:20 : pdfgrep -ni path *.pdf
 1847  2020-09-25 14:00:20 : sudo apt install pdfgrep
 1848  2020-09-25 14:00:20 : pdfgrep -ni path *.pdf
 1849  2020-09-25 14:00:20 : pdfgrep todo *.pdf
 1850  2020-09-25 14:00:20 : cd ..
 1851  2020-09-25 14:00:20 : pdfgrep todo *.pdf
 1852  2020-09-25 14:00:20 : bash progress_bar.sh 
 1853  2020-09-25 14:00:20 : pdfgrep color *.pdf
 1854  2020-09-25 14:00:20 : pdfgrep termcolor *.pdf
 1855  2020-09-25 14:00:20 : pdfgrep terminal *.pdf
 1856  2020-09-25 14:00:20 : pdfgrep terminal ejercicio_3.pdf
 1857  2020-09-25 14:00:20 : pdfgrep  ejercicio_3.pdf
 1858  2020-09-25 14:00:20 : find -iname ejercicio_3.pdf
 1859  2020-09-25 14:00:20 : pdfgrep vrojo ejercicio_3.pdf
 1860  2020-09-25 14:00:20 : pdfgrep vejercicio_3.pdf
 1861  2020-09-25 14:00:20 : pdfgrep v *.pdf
 1862  2020-09-25 14:00:20 : pdfgrep col *.pdf
 1863  2020-09-25 14:00:20 : pdfgrep color *.pdf
 1864  2020-09-25 14:00:20 : pdfgrep termcolor *.pdf
 1865  2020-09-25 14:00:20 : mkdir python_app
 1866  2020-09-25 14:00:20 : cd python_app/
 1867  2020-09-25 14:00:20 : mkvirtualenv AMBIENTE
 1868  2020-09-25 14:00:20 : workon AMBIENTE
 1869  2020-09-25 14:00:20 : python creator.py 
 1870  2020-09-25 14:00:20 : nano bash_creator.sh
 1871  2020-09-25 14:00:20 : bash bash_creator.sh 
 1872  2020-09-25 14:00:20 : git init 
 1873  2020-09-25 14:00:20 : git status 
 1874  2020-09-25 14:00:20 : git add .
 1875  2020-09-25 14:00:20 : git status 
 1876  2020-09-25 14:00:20 : git commit -m "script gestor de carpetas y archivos pte.1"
 1877  2020-09-25 14:00:20 : git push -u origin master
 1878  2020-09-25 14:00:20 : git remote add origin git@gitlab.com:Raquelbracho77/python_app.git
 1879  2020-09-25 14:00:20 : git status
 1880  2020-09-25 14:00:20 : git push -u origin master
 1881  2020-09-25 14:00:20 : ls 
 1882  2020-09-25 14:00:20 : bash bash_creator.sh 
 1883  2020-09-25 14:00:20 : nano bash_creator.sh 
 1884  2020-09-25 14:00:20 : bash bash_creator.sh 
 1885  2020-09-25 14:00:20 : nano bash_creator.sh 
 1886  2020-09-25 14:00:20 : bash bash_creator.sh 
 1887  2020-09-25 14:00:20 : nano bash_creator.sh 
 1888  2020-09-25 14:00:20 : bash bash_creator.sh 
 1889  2020-09-25 14:00:20 : nano bash_creator.sh 
 1890  2020-09-25 14:00:20 : bash bash_creator.sh 
 1891  2020-09-25 14:00:20 : nano bash_creator.sh 
 1892  2020-09-25 14:00:20 : bash bash_creator.sh 
 1893  2020-09-25 14:00:20 : nano bash_creator.sh 
 1894  2020-09-25 14:00:20 : bash bash_creator.sh 
 1895  2020-09-25 14:00:20 : clear
 1896  2020-09-25 14:00:20 : bash bash_creator.sh 
 1897  2020-09-25 14:00:20 : nano bash_creator.sh 
 1898  2020-09-25 14:00:20 : git status 
 1899  2020-09-25 14:00:20 : git add .
 1900  2020-09-25 14:00:20 : git commit -m "script en bash con decoradores"
 1901  2020-09-25 14:00:20 : git push -u origin master 
 1902  2020-09-25 14:00:20 : pip3 install termcolor
 1903  2020-09-25 14:00:20 : pip3 install colorama
 1904  2020-09-25 14:00:20 : touch mkdir.py
 1905  2020-09-25 14:00:20 : pwd
 1906  2020-09-25 14:00:20 : cd ejemplo1/
 1907  2020-09-25 14:00:20 : pwd
 1908  2020-09-25 14:00:20 : cd ..
 1909  2020-09-25 14:00:20 : cd ~
 1910  2020-09-25 14:00:20 : cd Documentos/python_app/
 1911  2020-09-25 14:00:20 : ls
 1912  2020-09-25 14:00:20 : ipython3
 1913  2020-09-25 14:00:20 : pwd
 1914  2020-09-25 14:00:20 : touch pr.py
 1915  2020-09-25 14:00:20 : tree
 1916  2020-09-25 14:00:20 : nano .gitignore
 1917  2020-09-25 14:00:20 : nano crear.sh
 1918  2020-09-25 14:00:20 : nano comandos.txt
 1919  2020-09-25 14:00:20 : git status 
 1920  2020-09-25 14:00:20 : git add .
 1921  2020-09-25 14:00:20 : git commit -m "gestor de ficheros y archivos pte.1"
 1922  2020-09-25 14:00:20 : git push -u origin master
 1923  2020-09-25 14:00:20 : bash bash_creator.sh 
 1924  2020-09-25 14:00:20 : nano bash_creator.sh 
 1925  2020-09-25 14:00:20 : bash bash_creator.sh 
 1926  2020-09-25 14:00:20 : python creator.py 
 1927  2020-09-25 14:00:20 : workon AMBIENTE
 1928  2020-09-25 14:00:20 : bash bash_creator.sh 
 1929  2020-09-25 14:00:20 : pip3 install termcolor
 1930  2020-09-25 14:00:20 : bash bash_creator.sh 
 1931  2020-09-25 14:00:20 : pip3 install colorama
 1932  2020-09-25 14:00:20 : bash bash_creator.sh 
 1933  2020-09-25 14:00:20 : nano bash_creator.sh 
 1934  2020-09-25 14:00:20 : bash bash_creator.sh 
 1935  2020-09-25 14:00:20 : nano bash_creator.sh 
 1936  2020-09-25 14:00:20 : bash bash_creator.sh 
 1937  2020-09-25 14:00:20 : nano bash_creator.sh 
 1938  2020-09-25 14:00:20 : bash bash_creator.sh 
 1939  2020-09-25 14:00:20 : pip3 install termcolor 
 1940  2020-09-25 14:00:20 : pdfgrep breakpoint *.pdf
 1941  2020-09-25 14:00:20 : pdfgrep comprimir *.pdf
 1942  2020-09-25 14:00:20 : pdfgrep primir *.pdf
 1943  2020-09-25 14:00:20 : pdfgrep funcion *.pdf
 1944  2020-09-25 14:00:20 : pdfgrep crear funcion *.pdf
 1945  2020-09-25 14:00:20 : pdfgrep crear/funcion *.pdf
 1946  2020-09-25 14:00:20 : pdfgrep funcion | pdfgrep crear*.pdf
 1947  2020-09-25 14:00:20 : pdfgrep crear *.pdf
 1948  2020-09-25 14:00:20 : git status
 1949  2020-09-25 14:00:20 : git add .
 1950  2020-09-25 14:00:20 : git commit -m "nueva modificacion a creator.py"
 1951  2020-09-25 14:00:20 : git push -u origin master
 1952  2020-09-25 14:00:20 : bash bash_creator.sh 
 1953  2020-09-25 14:00:20 : nano bash_creator.sh 
 1954  2020-09-25 14:00:20 : bash bash_creator.sh 
 1955  2020-09-25 14:00:20 : python -m pdb creator.py 
 1956  2020-09-25 14:00:20 : clear
 1957  2020-09-25 14:00:20 : python -m pdb creator.py 
 1958  2020-09-25 14:00:20 : python -m pdb pr.py 
 1959  2020-09-25 14:00:20 : git add .
 1960  2020-09-25 14:00:20 : git status
 1961  2020-09-25 14:00:20 : mkdir origen/destino
 1962  2020-09-25 14:00:20 : mkdir -p origen/destino
 1963  2020-09-25 14:00:20 : ls
 1964  2020-09-25 14:00:20 : rm origen/
 1965  2020-09-25 14:00:20 : mkdir origen destino
 1966  2020-09-25 14:00:20 : mkdir -p origen destino
 1967  2020-09-25 14:00:20 : ls
 1968  2020-09-25 14:00:20 : touch script.py
 1969  2020-09-25 14:00:20 : cd ..
 1970  2020-09-25 14:00:20 : cd Programacion/cositas_bash/ewe/
 1971  2020-09-25 14:00:20 : pdfgrep whit *.pdf
 1972  2020-09-25 14:00:20 : ls
 1973  2020-09-25 14:00:20 : pdfgrep keyword *.pdf
 1974  2020-09-25 14:00:20 : workon AMBIENTE
 1975  2020-09-25 14:00:20 : tree
 1976  2020-09-25 14:00:20 : touch archivo.py
 1977  2020-09-25 14:00:20 : ls
 1978  2020-09-25 14:00:20 : find -iname "*.zip"
 1979  2020-09-25 14:00:20 : find -iname "*.xz"
 1980  2020-09-25 14:00:20 : find -iname "*.gz"
 1981  2020-09-25 14:00:20 : clear
 1982  2020-09-25 14:00:20 : python3
 1983  2020-09-25 14:00:20 : touch generador_path_list.py
 1984  2020-09-25 14:00:20 : mv archivo.tar.gz archivo.zip ./destino/
 1985  2020-09-25 14:00:20 : mv curso-python-para-principiantes.tar.xz ./destino/
 1986  2020-09-25 14:00:20 : pwd
 1987  2020-09-25 14:00:20 : grep *.zip
 1988  2020-09-25 14:00:20 : find -iname "*,zip"
 1989  2020-09-25 14:00:20 : find -iname "*.zip"
 1990  2020-09-25 14:00:20 : pwd ~
 1991  2020-09-25 14:00:20 : ~ pwd 
 1992  2020-09-25 14:00:20 : find / -type d
 1993  2020-09-25 14:00:20 : clear
 1994  2020-09-25 14:00:20 : find / -type l
 1995  2020-09-25 14:00:20 : clear
 1996  2020-09-25 14:00:20 : ipython3
 1997  2020-09-25 14:00:20 : pwd
 1998  2020-09-25 14:00:20 : cd ~
 1999  2020-09-25 14:00:20 : sudo apt upgrade
 2000  2020-09-25 14:00:25 : cd ~
 2001  2020-09-25 14:01:07 : history|grep "bashrc"
 2002  2020-09-25 14:01:20 : nano -l ~/.bashrc
 2003  2020-09-25 14:03:58 : curl https://bootstrap.pypa.io/get-pip.py -o get-pip.py
 2004  2020-09-25 14:05:30 : python get-pip.py
 2005  2020-09-25 14:07:38 : cd /usr/local/bin/python3.8
 2006  2020-09-25 14:07:45 : /usr/local/bin/python3.8
 2007  2020-09-25 14:08:06 : cd us
 2008  2020-09-25 14:08:25 : history| grep "usr"
 2009  2020-09-25 14:10:14 : cd /usr/bin/python3.8
 2010  2020-09-25 14:11:18 : pwd
 2011  2020-09-25 14:11:37 : cd /usr/bin/python3.8
 2012  2020-09-25 14:13:05 : cd / which python3.8
 2013  2020-09-25 14:13:49 : cd /
 2014  2020-09-25 14:13:56 : wich python3.8
 2015  2020-09-25 14:14:03 : which python3.8
 2016  2020-09-25 14:15:15 : cd /usr/bin/python3.8
 2017  2020-09-25 14:48:51 : cd ~
 2018  2020-09-25 15:30:18 : histpty
 2019  2020-09-25 15:30:24 : history
 2020  2020-09-25 15:31:14 : export HISTTIMEFORMAT='%F %T : '
 2021  2020-09-25 15:31:26 : history
 2022  2020-09-25 15:32:10 : histpry > historial.txt
 2023  2020-09-25 15:32:14 : history > historial.txt
